{
  "images" : [
    {
      "idiom" : "universal",
      "filename" : "duree_activite_par_semaine_picto.png",
      "scale" : "1x"
    },
    {
      "idiom" : "universal",
      "filename" : "duree_activite_par_semaine_picto@2x.png",
      "scale" : "2x"
    },
    {
      "idiom" : "universal",
      "filename" : "duree_activite_par_semaine_picto@3x.png",
      "scale" : "3x"
    }
  ],
  "info" : {
    "version" : 1,
    "author" : "xcode"
  }
}